{
  "repo": {
    "timestamp": 1612933251000,
    "version": 21,
    "name": "Extra apps",
    "icon": "default-repo-icon.png",
    "address": "https://raw.githubusercontent.com/tatomatte/Froid/master/fdroid/repo",
    "description": "Some extra apps for fdroid",
    "mirrors": [
      "https://raw.githubusercontent.com/tatomatte/Froid/master/fdroid/repo/repo",
      "https://tatomatte.gitlab.io/f-droid-repo/fdroid/repo/repo"
    ]
  },
  "requests": {
    "install": [],
    "uninstall": []
  },
  "apps": [
    {
      "authorName": "Loki Foundation",
      "categories": [
        "Connectivity",
        "Security",
        "Phone & SMS"
      ],
      "suggestedVersionCode": "1355",
      "license": "Unknown",
      "name": "Session",
      "added": 1612897332000,
      "icon": "network.loki.messenger.1355.png",
      "packageName": "network.loki.messenger",
      "lastUpdated": 1612922283000,
      "localized": {
        "en-US": {
          "description": "Session is a new breed of encrypted private messenger, built on a unique network of user-operated servers spread all over the world. With no central servers, Session can\u2019t leak or sell your data. You don't need a phone number or email to sign up \u2014 your Session ID can stay completely anonymous. And Session\u2019s private routing protocols keep your messages secret and secure. No one ever knows who you\u2019re talking to, what you\u2019re saying, or even your IP address.\r\n\r\n\u2022 Fully anonymous account creation, no phone number or email required\r\n\r\n\u2022 Decentralised server network: No data breaches and no central point of failure\r\n\r\n\u2022 No metadata logging: Session doesn't store, track, or log your messaging metadata\r\n\r\n\u2022 IP address protection: Device IP addresses are never exposed to the person you're talking to or the servers holding your data\r\n\r\n\u2022 Closed groups: Private, end-to-end encrypted group chats for up to 100 people\r\n\r\n\u2022 Encrypted attachments: Share voice snippets, photos, and files with Session's security and privacy protections\r\n\r\n\u2022 Free and fully open-source: Don\u2019t take our word for it \u2014 check Session's code yourself\r\n\r\nSession is free as in free speech, free as in free beer, and free of ads and trackers. Session is built and maintained by the Loki Foundation, Australia\u2019s first privacy tech not-for-profit organisation. Take back your online privacy today \u2014 download Session.\r\n\r\nWant to build from source, report a bug, or just take a look at our code? Check out Session on GitHub: https://github.com/loki-project/session-android",
          "phoneScreenshots": [
            "unnamed.png",
            "unnamed1.png",
            "unnamed3.png",
            "unnamed4.png",
            "unnamed5.png",
            "unnamed6.png",
            "unnamed7.png"
          ],
          "summary": "Private Messenger"
        }
      }
    }
  ],
  "packages": {
    "network.loki.messenger": [
      {
        "added": 1612922283000,
        "apkName": "session-1.6.12-universal.apk",
        "hash": "d7ed6471048c8e2addcb949c4f1b5be79e6d4bdcbdf70e70450c11ff4ae94faf",
        "hashType": "sha256",
        "minSdkVersion": 21,
        "nativecode": [
          "arm64-v8a",
          "armeabi-v7a",
          "x86",
          "x86_64"
        ],
        "packageName": "network.loki.messenger",
        "sig": "702dcc50431a18bf79b985819198eab5",
        "signer": "f2a0ecf70686447d1d6c6cbbf58c42890500ccf41af372ae2099303980824edd",
        "size": 55094637,
        "targetSdkVersion": 29,
        "uses-permission": [
          [
            "android.permission.FOREGROUND_SERVICE",
            null
          ],
          [
            "android.permission.USE_FINGERPRINT",
            null
          ],
          [
            "network.loki.messenger.ACCESS_SESSION_SECRETS",
            null
          ],
          [
            "android.permission.WRITE_EXTERNAL_STORAGE",
            null
          ],
          [
            "android.permission.CAMERA",
            null
          ],
          [
            "android.permission.RECORD_AUDIO",
            null
          ],
          [
            "android.permission.MODIFY_AUDIO_SETTINGS",
            null
          ],
          [
            "android.permission.RECEIVE_BOOT_COMPLETED",
            null
          ],
          [
            "android.permission.VIBRATE",
            null
          ],
          [
            "android.permission.ACCESS_NETWORK_STATE",
            null
          ],
          [
            "com.google.android.c2dm.permission.RECEIVE",
            null
          ],
          [
            "android.permission.WAKE_LOCK",
            null
          ],
          [
            "android.permission.INTERNET",
            null
          ],
          [
            "android.permission.READ_SYNC_SETTINGS",
            null
          ],
          [
            "android.permission.WRITE_SYNC_SETTINGS",
            null
          ],
          [
            "android.permission.INSTALL_SHORTCUT",
            null
          ],
          [
            "com.android.launcher.permission.INSTALL_SHORTCUT",
            null
          ],
          [
            "android.permission.BROADCAST_STICKY",
            null
          ],
          [
            "android.permission.DISABLE_KEYGUARD",
            null
          ],
          [
            "android.permission.RAISED_THREAD_PRIORITY",
            null
          ],
          [
            "android.permission.REQUEST_IGNORE_BATTERY_OPTIMIZATIONS",
            null
          ],
          [
            "android.permission.READ_EXTERNAL_STORAGE",
            null
          ],
          [
            "com.sec.android.provider.badge.permission.READ",
            null
          ],
          [
            "com.sec.android.provider.badge.permission.WRITE",
            null
          ],
          [
            "com.htc.launcher.permission.READ_SETTINGS",
            null
          ],
          [
            "com.htc.launcher.permission.UPDATE_SHORTCUT",
            null
          ],
          [
            "com.sonyericsson.home.permission.BROADCAST_BADGE",
            null
          ],
          [
            "com.sonymobile.home.permission.PROVIDER_INSERT_BADGE",
            null
          ],
          [
            "com.anddoes.launcher.permission.UPDATE_COUNT",
            null
          ],
          [
            "com.majeur.launcher.permission.UPDATE_BADGE",
            null
          ],
          [
            "com.huawei.android.launcher.permission.CHANGE_BADGE",
            null
          ],
          [
            "com.huawei.android.launcher.permission.READ_SETTINGS",
            null
          ],
          [
            "com.huawei.android.launcher.permission.WRITE_SETTINGS",
            null
          ],
          [
            "android.permission.READ_APP_BADGE",
            null
          ],
          [
            "com.oppo.launcher.permission.READ_SETTINGS",
            null
          ],
          [
            "com.oppo.launcher.permission.WRITE_SETTINGS",
            null
          ],
          [
            "me.everything.badger.permission.BADGE_COUNT_READ",
            null
          ],
          [
            "me.everything.badger.permission.BADGE_COUNT_WRITE",
            null
          ]
        ],
        "versionCode": 1355,
        "versionName": "1.6.12"
      }
    ]
  }
}